<?xml version="1.0" encoding="UTF-8" standalone="no"?>
<!-- Created with Inkscape (http://www.inkscape.org/) -->

<svg
   width="50mm"
   height="57.400002mm"
   viewBox="0 0 50 57.400002"
   version="1.1"
   id="svg1"
   inkscape:version="1.3.2 (091e20e, 2023-11-25, custom)"
   sodipodi:docname="fondObjectif.svg"
   xmlns:inkscape="http://www.inkscape.org/namespaces/inkscape"
   xmlns:sodipodi="http://sodipodi.sourceforge.net/DTD/sodipodi-0.dtd"
   xmlns="http://www.w3.org/2000/svg"
   xmlns:svg="http://www.w3.org/2000/svg">
  <sodipodi:namedview
     id="namedview1"
     pagecolor="#ffffff"
     bordercolor="#666666"
     borderopacity="1.0"
     inkscape:showpageshadow="2"
     inkscape:pageopacity="0.0"
     inkscape:pagecheckerboard="0"
     inkscape:deskcolor="#d1d1d1"
     inkscape:document-units="mm"
     inkscape:zoom="1.4627806"
     inkscape:cx="95.366319"
     inkscape:cy="175.35097"
     inkscape:window-width="1920"
     inkscape:window-height="1017"
     inkscape:window-x="-8"
     inkscape:window-y="-8"
     inkscape:window-maximized="1"
     inkscape:current-layer="layer1" />
  <defs
     id="defs1" />
  <g
     inkscape:label="Calque 1"
     inkscape:groupmode="layer"
     id="layer1">
    <text
       xml:space="preserve"
       style="font-style:normal;font-variant:normal;font-weight:normal;font-stretch:normal;font-size:10.5833px;line-height:6.61458px;font-family:'Linux Biolinum G';-inkscape-font-specification:'Linux Biolinum G';letter-spacing:0px;word-spacing:0px;stroke-width:0.264583"
       x="16.182606"
       y="36.745354"
       id="text1"
       transform="rotate(-15)"><tspan
         sodipodi:role="line"
         style="font-style:normal;font-variant:normal;font-weight:normal;font-stretch:normal;font-family:'Linux Biolinum G';-inkscape-font-specification:'Linux Biolinum G';text-align:center;text-anchor:middle;stroke-width:0.264583"
         x="16.182606"
         y="36.745354"
         id="tspan3">Objectif</tspan></text>
    <rect
       style="opacity:1;fill:#ffddcc;fill-opacity:1;stroke:none;stroke-width:1.35853;stroke-dasharray:16.3023, 1.35853;stroke-dashoffset:0;stroke-opacity:1"
       id="rect3"
       width="31.36858"
       height="2.6858861"
       x="-3.8450418"
       y="24.726572"
       transform="rotate(-15)" />
    <rect
       style="opacity:1;fill:#cceeff;fill-opacity:1;stroke:none;stroke-width:1.35853;stroke-dasharray:16.3023, 1.35853;stroke-dashoffset:0;stroke-opacity:1"
       id="rect3-8"
       width="31.36858"
       height="2.6858861"
       x="5.9165401"
       y="40.972637"
       transform="rotate(-15)" />
  </g>
</svg>
